'SubjectId','Subject','ShortSubject','Photo','CategoryId','SortOrder','Visible'
1,'Overview of the Austrian School of Economics','Overview','/images/sg/ae-overview.jpg',1,1,1
2,'Biographical: Personal and Intellectual','Biography','/images/sg/ae-biographical.jpg',1,2,1
3,'Methodological Foundations','Methodology','/images/sg/ae-methodology.jpg',1,3,1
4,'Subjectivism and the Theory of Value','Subjectivism','/images/sg/ae-subjectivism.jpg',1,4,1
5,'Price, Cost, and Equilibrium','Price/Cost','/images/sg/ae-price-cost.jpg',1,5,1
6,'Welfare, Efficiency, and the Law','Welfare','/images/sg/ae-welfare.jpg',1,6,1
7,'Competition, Monopoly, and the Firm','Competition','/images/sg/ae-competition.jpg',1,7,1
8,'Entrepreneurship','Entrepreneurship','/images/sg/ae-entrepreneurship.jpg',1,8,1
9,'The Calculation Debate','Calculation','/images/sg/ae-calculation.jpg',1,9,1
10,'Capital and Interest','Capital/Interest','/images/sg/ae-capital-interest.jpg',1,10,1
11,'Money and Banking','Money/Banking','/images/sg/ae-money-banking.jpg',1,11,1
12,'The Business Cycle','Cycles','/images/sg/ae-business-cycle.jpg',1,12,1
13,'Wages and Unemployment','Wages','/images/sg/ae-wages.jpg',1,13,1
14,'Economic History','Econ. History','/images/sg/ae-economic-history.jpg',1,14,1
15,'The History of Economic Thought','Econ. Thought','/images/sg/ae-history-economic-thought.jpg',1,15,1
16,'The Mixed Economy','Mixed Economy','/images/sg/ae-mixed-economy.jpg',1,16,1
17,'Interdisciplinary Studies','Interdisciplinary','/images/sg/ae-interdisciplinary.jpg',1,17,1
21,'A0 - General Economics and Teaching','Economics & Teaching','NULL',3,30,0
22,'B0 - Schools of Economic Thought and Methodology','Schools of Thought',,3,40,0
23,'B1 - History of Economic Thought through 1925','pre-1925 Economic Thought',,3,50,0
24,'B2 - History of Economic Thought since 1925','post-1925  Economic Thought',,3,51,0
25,'B3 - History of Thought: Individuals','Economists',,3,52,0
26,'B4 - Economic Methodology','Econ. Methodology',,3,53,0
27,'B5 - Current Heterodox Approaches','Heterodox',,3,54,0
28,'C0 - Mathematical and Quantitative Methods','Math. Methods',,3,60,0
29,'C1 - Econometric and Statistical Methods','Econometrics',,3,61,0
30,'C6 - Mathematical Methods and Programming','Math Econ.',,3,62,0
31,'C7 - Game Theory and Bargaining Theory','Game Theory',,3,63,0
33,'D0 - Microeconomics: General','Microeconomics',,3,70,0
34,'D1 - Household Behavior','Households',,3,71,0
35,'D2 - Production and Organizations','Production',,3,72,0
36,'D3 - Distribution','Distribution',,3,73,0
37,'D4 - Market Structure and Pricing','Market Structure',,3,74,0
38,'D5 - General Equilibrium and Disequilibrium','Equilibrium',,3,75,0
39,'D6 - Welfare Economics','Welfare Economics',,3,76,0
40,'D7 - Analysis of Collective Decision-Making','Collectives',,3,77,0
41,'D8 - Information and Uncertainty','Information',,3,78,0
42,'D9 - Intertemporal Choice and Growth','Growth',,3,79,0
43,'E0 - Macroeconomics and Monetary Economics:','Macroeconomics',,3,90,0
44,'E1 - General Aggregative Models','Macro Models',,3,91,0
45,'E2 - Consumption, Saving, Production, Employment, and Investment','Consumption',,3,92,0
46,'E3 - Prices, Business Fluctuations, and Cycles','Prices/Cycles',,3,93,0
47,'E4 - Money and Interest Rates','Money',,3,94,0
48,'E5 - Monetary Policy, Central Banking, and the Supply of Money','Monetary Policy',,3,95,0
49,'E6 - Macroeconomic Aspects of Public Finance, Macroeconomic Policy, and','Macro Policy',,3,96,0
50,'F0 - International Economics: General','International Economics',,3,100,0
51,'F2 - International Factor Movements and International Business','Internationa  Business',,3,101,0
52,'F3 - International Finance','International Finance',,3,102,0
53,'G0 - Financial Economics: General','Finance',,3,110,0
54,'G1 - General Financial Markets','Financial Markets',,3,111,0
55,'G2 - Financial Institutions and Services','Financial Services',,3,112,0
56,'G3 - Corporate Finance and Governance','Corporate',,3,113,0
57,'H0 - Public Economics: General','Public Economics',,3,120,0
58,'H1 - Structure and Scope of Government','Government',,3,121,0
59,'H2 - Taxation, Subsidies, and Revenue','Taxation',,3,122,0
60,'H3 - Fiscal Policies and Behavior of Economic Agents','Fiscal Policies',,3,123,0
61,'H4 - Publicly Provided Goods','Public Goods',,3,124,0
62,'H5 - National Government Expenditures and Related Policies','Government Spending',,3,125,0
63,'H6 - National Budget, Deficit, and Debt','National Budget',,3,126,0
64,'H7 - State and Local Government; Intergovernmental Relations','Local Government',,3,127,0
65,'I0 - Health, Education, and Welfare: General','Health Education and Welfare',,3,140,0
66,'I1 - Health','Health',,3,141,0
67,'I2 - Education','Education',,3,142,0
68,'I3 - Welfare and Poverty','Welfare',,3,143,0
69,'J0 - Labor and Demographic Economics: General','Labor Economics',,3,150,0
70,'J1 - Demographic Economics','Demographics',,3,151,0
71,'J3 - Wages, Compensation, and Labor Costs','Labor Costs',,3,152,0
72,'J5 - Labor-Management Relations, Trade Unions, and Collective Bargaining','Unions',,3,153,0
73,'J7 - Discrimination','Discrimination',,3,154,0
74,'K0 - Law and Economics: General','Law & Economics',,3,160,0
75,'K1 - Basic Areas of Law','Basic Law',,3,161,0
76,'K2 - Regulation and Business Law','Regulation',,3,162,0
77,'K4 - Legal Procedure, the Legal System, and Illegal Behavior','Legal System',,3,163,0
78,'L0 - Industrial Organization: General','Industrial Organization',,3,170,0
79,'L1 - Market Structure, Firm Strategy, and Market Performance','Firm Strategy',,3,171,0
80,'L3 - Nonprofit Organizations and Public Enterprise','Nonprofits',,3,172,0
81,'L4 - Antitrust Policy','Antitrust',,3,173,0
82,'L5 - Regulation and Industrial Policy','Industrial Policy',,3,174,0
83,'M0 - Business Administration and Business Economics; Marketing; Accounting:','Business Admin.',,3,180,0
84,'M2 - Business Economics','Business Econ.',,3,181,0
85,'M3 - Marketing and Advertising','Marketing',,3,182,0
86,'M4 - Accounting','Accounting',,3,183,0
87,'N0 - Economic History: General','Economic History',,3,190,0
88,'N1 - Macroeconomics and Monetary Economics; Growth and Fluctuations','Cycle History',,3,191,0
89,'N2 - Financial Markets and Institutions','Financial History',,3,192,0
90,'N3 - Labor and Consumers, Demography, Education, Income and','Labor History',,3,193,0
91,'N4 - Government, War, Law, and Regulation','Government History',,3,194,0
92,'N5 - Agriculture, Natural Resources, Environment, and Extractive Industries','Agricultural History & Natural Resources',,3,195,0
93,'N7 - Transport, International and Domestic Trade, Energy, and Other Services','Trade History',,3,196,0
94,'N8 - Micro-Business History','Micro-Business',,3,197,0
95,'N9 - Regional and Urban History','Regional History',,3,198,0
96,'O1 - Economic Development','Economic Development',,3,210,0
97,'O2 - Development Planning and Policy','Development Policy',,3,211,0
98,'O3 - Technological Change','Technology',,3,212,0
99,'O5 - Economywide Country Studies','Country Studies',,3,213,0
100,'P1 - Capitalist Systems','Capitalism',,3,220,0
101,'P2 - Socialist Systems and Transitional Economies','Socialism',,3,221,0
102,'P3 - Socialist Institutions and Their Transitions','Socialist Transition',,3,222,0
103,'P4 - Other Economic Systems','Other Systems',,3,223,0
104,'P5 - Comparative Economic Systems','Comparative Systems',,3,224,0
105,'Q0 - Agricultural and Natural Resource Economics: General','Agircultural Economics',,3,230,0
107,'Q2 - Renewable Resources and Conservation; Environmental Management','Conservation',,3,231,0
108,'Q4 - Energy','Energy',,3,232,0
109,'R0 - Urban, Rural, and Regional Economics: General','Regional Economics',,3,240,0
110,'R3 - Production Analysis and Firm Location','Firm Location',,3,241,0
111,'R4 - Transportation Systems','Transportation',,3,242,0
112,'R5 - Regional Government Analysis','Regional Government Analysis',,3,243,0
113,'Z1 - Cultural Economics','Cultural Economics',,3,250,0
115,'The Political Economy of Taxation: The Frederick L. Maier Archive','Taxation','/images/sg/ae-taxation.jpg',1,18,1
116,'Core','Core',,2,19,1
117,'Books (full text)','Books','NULL',2,20,1
118,'Philosophical Foundations','Philosophy','/images/sg/ls-philosophy.jpg',4,1000,1
119,'Political Philosophy','Political Philosophy','/images/sg/ls-political-philosophy.jpg',4,1010,1
120,'Property','Property','/images/sg/ls-property.jpg',4,1020,1
121,'History','History','/images/sg/ls-history.jpg',4,1030,1
122,'Law','Law','/images/sg/ls-law.jpg',4,1040,1
123,'Anarchy','Anarchy','/images/sg/ls-anarchy.jpg',4,1050,1
124,'State Theory','The State','/images/sg/ls-state-theory.jpg',4,1060,1
125,'Intellectual History','Intellectual History','/images/sg/ls-intellectual-history.jpg',4,1070,1
126,'Religion and Politics','Religion','/images/sg/ls-religion.jpg',4,1080,1
127,'Austrian Methodology for the Social Sciences','Austrian Method','/images/sg/ls-austrian-methodology.jpg',4,1090,1
128,'Strategy','Strategy','/images/sg/ls-strategy.jpg',4,1100,1
129,'Sociology','Sociology','/images/sg/ls-sociology.jpg',4,1110,1
130,'Literature and the Arts','Literature','/images/sg/ls-literature.jpg',4,1120,1
131,'Medicine, Psychology and Psychiatry','Medicine','/images/sg/ls-medicine.jpg',4,1130,1
132,'War and Foreign Policy','War','/images/sg/ls-war.jpg',4,1131,1
133,'Education','Education','/images/sg/ls-education.jpg',4,1140,1
134,'Natural Sciences and the Environment','Science','/images/sg/ls-science.jpg',4,1150,1
135,'Featured Biographies','Biographies','/images/sg/ae-biographical.jpg',1,'NULL',1
