'FavoriteId','UserId','URL','Title','IPaddress','CreateDate'
2,'HeroicLife','http://mises.org/about.aspx','About the Mises Institute','76.187.182.77',08/01/07 10:17 PM
3,'HeroicLife','http://mises.org/store/Anatomy-of-Criticism-A-Trialogue-The-P352C1.aspx','Ludwig von Mises Institute Shop','76.187.182.77',08/03/07 04:54 PM
4,'HeroicLife','http://mises.org/store/Driver-The-P418C0.aspx','Ludwig von Mises Institute Shop','76.187.182.77',08/03/07 04:55 PM
5,'HeroicLife','http://mises.org/resources/3250','Human Action Homepage','76.187.182.77',08/05/07 02:04 PM
7,'HeroicLife','http://mises.org/resources/3250#','Human Action Homepage','76.187.182.77',08/08/07 04:48 AM
8,'HeroicLife','http://mises.org/about/3248#','Biography of Ludwig von Mises (1881-1973)','76.187.182.77',08/11/07 11:33 AM
10,'HeroicLife','http://mises.org/store/Marxism-Unmasked-From-Delusion-to-Destruction-P328C17.aspx','Marxism Unmasked: From Delusion to Destruction','76.187.182.77',08/12/07 07:16 PM
11,'HeroicLife','http://mises.org/store/Economics-of-Liberty-The--P62C22.aspx','Economics of Liberty, The','76.187.182.77',08/13/07 04:31 PM
13,'HeroicLife','http://mises.org/store/Panic-of-1819-Reactions-and-Policies-P388C0.aspx','Panic of 1819 Reactions and Policies','76.187.182.77',08/14/07 10:15 AM
14,'HeroicLife','http://mises.org/about/3249','Biography of Murray N. Rothbard (1926-1995)','76.187.182.77',08/14/07 05:47 PM
19,'HeroicLife','http://mises.org/resources.aspx?Id=561561e0-e4b8-46ff-934d-90c2dd56de6e','Traffic Comparisons','76.187.182.77',08/16/07 10:50 AM
20,'HeroicLife','http://mises.org/about.aspx','About the Mises Institute','76.187.182.77',08/17/07 09:10 AM
21,'HeroicLife','http://mises.org/resources.aspx?Id=69c893d3-b7e2-424c-9cae-66100884475d','Epistemological Problems of Economics by Ludwig von Mises','76.187.182.77',08/17/07 12:31 PM
22,'HeroicLife','http://mises.org/resources.aspx?Id=799d59c0-ee7e-4d67-940c-7b2b94ae1208','An American Classical Liberalism','76.187.182.77',08/17/07 05:52 PM
23,'HeroicLife','http://mises.org/resources.aspx?Id=69c893d3-b7e2-424c-9cae-66100884475d','Epistemological Problems of Economics by Ludwig von Mises','76.187.182.77',08/18/07 03:21 AM
24,'HeroicLife','http://mises.org/article.aspx?Id=2676','The Fed Bought What? - Mises Institute','76.187.182.77',08/18/07 04:39 PM
25,'HeroicLife','http://mises.org/article.aspx?Id=1766#','The Intellectual Incoherence of Conservatism - Mises Institute','76.187.182.77',08/18/07 05:30 PM
27,'HeroicLife','http://mises.org/article.aspx?Id=2593','Liberty Defined - Mises Institute','76.187.182.77',08/18/07 11:44 PM
35,'dreyes@reyesholdings.com','https://mises.org/store/editaddrbook.aspx?Address_ID=29934','Edit Address','66.171.54.79',08/26/07 08:30 PM
40,'Dean2','http://mises.org/article.aspx?Id=2679#','The Dilemma of State Economic Development - Mises Institute','64.89.216.232',08/28/07 02:19 PM
42,'normanh@mail.utexas.edu','http://mises.org/media.aspx?action=category&ID=101','Mises Audio/Video','216.188.230.51',08/28/07 06:30 PM
48,'dennis.spain@gmail.com','http://mises.org/markets.aspx','Markets and Data','72.235.97.249',08/29/07 08:52 PM
50,'brennan.mcdonald@gmail.com','http://mises.org/default.aspx','Ludwig von Mises Institute Home','203.89.173.247',08/29/07 09:11 PM
53,,'http://mises.org/article.aspx?Id=2675','The Party is Over - Again - Mises Institute','66.25.155.131',08/30/07 10:36 AM
54,'eawright@sbcglobal.net','http://mises.org/article.aspx?Id=2675','The Party is Over - Again - Mises Institute','69.234.145.226',08/30/07 02:46 PM
