'ContentID','Name','Title','Body','LastModified','SortOrder','Hidden'
3,'ArticlesHeader','header for articles.aspx','New articles (<a href="http://mises.org/articles.aspx">see full list</a>) appear every day, by popular authors such as <a href="http://mises.org/articles.aspx?AuthorId=275"> Llewellyn H. Rockwell, Jr.</a>, <a href="http://mises.org/articles.aspx?AuthorId=299"> Murray Rothbard</a>, <a href="http://mises.org/articles.aspx?AuthorId=380">Robert Murphy</a>, among many others. Click on the name to see author archive, each one of which has its own RSS feed. <br />  <a href="http://mises.org/elist.asp">Subscribe</a>| <a href="invitation.aspx">Invite a friend</a> <a class="rss" href="/dailyarticles.xml">rss</a>  ',04/21/08 12:15 AM,'NULL',0
4,'LiteratureHeader','Header of literature.aspx','The most complete online offering of the literature of the Austrian School and libertarian ideas, including <a href="http://mises.org/literature.aspx?action=subject&amp;Id=117">books</a>, journal articles, and other writings, sorted by any method you choose. See also the growing collection of <a href="http://www.scribd.com/people/view/3977958-ludwig-von-mises-institute">embedded books on Scribd</a>.',04/21/08 12:20 AM,'NULL',0
5,'MediaHeader','header of media.aspx','All our conferences on such diverse topics as welfare, bureaucracy, war, and monetary reform, as well as our weekly seminars, are available online. In addition, you will find Mises media at the Institute <a href="http://www.youtube.com/user/misesmedia">Youtube channel</a> and on <a target="_blank" href="http://video.google.com/videoplay?docid=-466210540567002553&amp;ei=P3S2Sb_TDaqIqQOw7enyAw&amp;q=Money+Banking+Federal+Reserve&amp;emb=1">Google video</a>. Live webcasts are available at the <a target="_blank" href="http://www.ustream.tv/channel/mises-media">Mises.org UStream Channel</a>.',04/21/08 12:21 AM,'NULL',0
6,'Donate','donate.aspx','<p>  If you appreciate the resources and fighting spirit you find on Mises.org, know  that the Mises Institute exists solely on voluntary contributions. We accept no  government grants and do no work-for-hire for large foundations or corporations.  The energy you see on display is due to a small and dedicated staff, and a vast  network of students, faculty, and volunteers around the world. We depend entirely  on the financial support of people who share our ideals.</p>  <p>  You can receive our <a href="http://mises.org/freenewsletter.aspx">newsletter for  free</a>. But joining as a <em>member</em> of the Mises Institute with a tax-deductible  contribution of $50 brings you reports and news, as well as admission to all conferences  at member prices. The most important benefit of membership is the knowledge that  you are playing an important role in an effective push for sound economic education,  free markets, sound money, and peace.</p>  <p>  You can make your donation <em>recurring</em> so that your card is charged every month  (with donations starting at $10). This is the easiest way to ensure that your support  for the work of the Mises Institute is ongoing. For other long-term options, see  the <a href="http://www.supportmises.org">Gift Planning Homepage</a>.  </p>  <p>  To become a member or contribute to a special project, complete the form below.  Students or faculty who want to be on the mailing list, go <a href="/form.aspx?Id=3">  here</a>.</p>  <p>  The Mises Institute gratefully accepts gifts of stock and appreciated assets, and  offers long-term giving options. See the <a href="http://www.giftlegacy.net/plgive_main.jsp?WebID=GL2004-0179">  Mises Institute''s gift planning services</a> (for professional advisers,  Mises.org offers <a href="http://www.giftlaw.net/giftlaw.jsp?WebID=GL2004-0581">Gift  Law</a>). Email <a href="&#109;&#97;&#105;&#108;&#116;&#111;&#58;&#106;&#97;&#109;&#101;&#115;&#64;&#109;&#105;&#115;&#101;&#115;&#46;&#111;&#114;&#103;">James W. Fogal</a>, Director  of Development (<a href="http://mises.org/fellow.aspx?Id=20">bio</a>),  for further information on contributing in this manner (or phone him at 334.321.2106).  </p>  <p>  However you choose to give, the Mises Institute is deeply grateful for your support.</p>  ',04/22/08 04:05 PM,0,0
7,'PublicationsSidebar','PublicationsSidebar','<div class="box about">  <h2>  Journals</h2>  <div class="cont">  <ul class="menu">       <li>       <a href="http://mises.org/library/">In-House       Library</a></li>       <li><a href="http://www.libertarianpapers.org/">Libertarian Papers</a> </li>       <li><a href="http://mises.org/periodical.aspx?Id=4">Quarterly Journal of       Austrian Economics</a></li>       <li><a href="http://mises.org/periodical.aspx?Id=2">Mises Review</a></li>       <li><a href="http://mises.org/periodical.aspx?Id=7">Working Papers</a></li>       <li><a href="http://mises.org/periodical.aspx?Id=5">Review of Austrian Economics</a> </li>       <li><a href="http://mises.org/periodical.aspx?Id=3">Journal of Libertarian Studies</a></li>       <li><a href="http://mises.org/journals/left-right.asp">Left and Right </a> </li>       <li><a href="http://mises.org/journals/libertarianforum.asp">The Libertarian Forum</a> </li>       <li><a href="http://mises.org/literature.aspx?action=author">All Authors</a></li>       <li><a href="http://mises.org/literature.aspx?action=author&amp;Id=280">Mises''s Works</a> </li>       <li>       <a href="http://mises.org/literature.aspx?action=author&amp;Id=299">Rothbard''s       Works</a></li>       <li> <a href="http://mises.org/content/film">FilmList</a></li>       <li> <a href="http://mises.org/rss.aspx">Feeds and RSS</a></li>  </ul>  </div>  </div>  ',04/22/08 04:13 PM,'NULL',0
8,'LiteratureSidebar','LiteratureSidebar','<div class="box literaturemain">  <h2>Literature</h2>  <a class="rss" href="http://mises.org/literature.xml">rss</a>  <div class="cont">  <ul class="menu">       <li>       <a href="http://mises.org/library/">In-House Library</a></li>       <li><a href="http://libertarianpapers.org">Libertarian Papers</a></li>       <li><a href="http://mises.org/periodical.aspx?Id=4">Quarterly Journal of Austrian Economics</a></li>       <li><a href="http://mises.org/periodical.aspx?Id=2">Mises Review</a></li>       <li><a href="http://mises.org/periodical.aspx?Id=7">Working Papers</a></li>       <li><a href="http://mises.org/periodical.aspx?Id=5">Review of Austrian Economics</a> </li>       <li><a href="http://mises.org/periodical.aspx?Id=3">Journal of Libertarian Studies</a></li>       <li><a href="http://mises.org/journals/left-right.asp">Left and Right </a> </li>       <li><a href="http://mises.org/journals/libertarianforum.asp">The Libertarian Forum</a> </li>       <li><a href="http://mises.org/literature.aspx?action=author">All Authors</a></li>       <li><a href="http://mises.org/literature.aspx?action=author&amp;Id=280">Mises''s Works</a> </li>       <li> <a href="http://mises.org/literature.aspx?action=author&amp;Id=299">Rothbard''s Works</a></li>       <li> <a href="http://mises.org/content/film">FilmList</a></li>       <li> <a href="http://mises.org/rss.aspx">Feeds and RSS</a></li>  </ul>  <!-- / .cont -->  </div>  <!-- / .box -->  </div>  ',04/22/08 04:26 PM,'NULL',0
9,'EventsSidebar','EventsSidebar','<div class="box" id="eventsmain">  <h2>Events</h2>  <a class="rss" href="http://mises.org/events.xml">rss</a>  <div class="cont">  <ul class="menu">      <li><a href="http://www.google.com/calendar/htmlembed?src=misesinstitute%40gmail.com" target="_blank">Google Calendar with Mises Institute </a></li>      <li><a href="content/webcasts.asp">Upcoming Webcasts on Mises.org</a></li>      <li><a href="campus.asp">The Mises Campus</a></li>      <li><a href="/virtualtour">Take a Virtual Tour</a></li>      <li><a href="/form.aspx?Id=3">Student Fellowship Application</a></li>      <li><a href="manual.pdf">Manual for Visiting Students and Scholars</a> </li>  </ul>  <!-- / .cont --></div>  <!-- / .box --></div>  <div class="box" id="moremenu">  <h2>More<br />  </h2>  <div class="cont">  <ul class="menu">      <li><a href="http://www.express85.com" target="_blank">Shuttle from Atlanta airport</a></li>      <li><a href="http://www.aotourism.com/">Auburn-Opelika Tourism</a></li>      <li><a href="http://www.auburnchamber.com/">Auburn Chamber of Commerce</a> </li>      <li><a href="content/driving.asp">Driving directions</a></li>      <li><a href="http://www.weather.com/weather/local/36830" target="_blank">Auburn Weather</a></li>      <li><a target="_blank" href="http://maps.google.com/maps?q=Mises%20Institute%2C%20Auburn%2C%20Alabama&amp;oe=utf-8&amp;rls=org.mozilla:en-US:official&amp;client=firefox-a&amp;um=1&amp;ie=UTF-8&amp;sa=N&amp;hl=en&amp;tab=wl">Google Map of Auburn</a> </li>  </ul>  <!-- / .cont --></div>  <!-- / .box --></div>',04/22/08 04:27 PM,'NULL',0
10,'ArticlesSidebar','ArticlesSidebar','<div class="box literaturemain">  <a class="rss" title="Daily Articles Feed" href="/dailyarticles.xml">  rss</a>  <div class="cont">  <ul class="menu">      <li><a href="http://mises.org/articles.aspx">Mises Daily Article Archive</a></li>      <li><a href="http://mises.org/articles.aspx?AuthorId=-1">All Mises Daily Authors</a></li>      <li><a href="http://mises.org/articles.aspx?action=gallery">Mises Daily Gallery View</a><br />      </li>      <li><a href="http://mises.org/articles.aspx?action=title">Title</a></li>      <li><a href="http://mises.org/articles">Date</a></li>      <li><a href="http://mises.org/articles.aspx?action=authors">Authors</a></li>      <li><a href="http://mises.org/about/3322">Feeds and RSS</a>      <p><a href="http://feeds.feedburner.com/MisesDailyArticles"><img src="http://feeds.feedburner.com/~fc/MisesDailyArticles?bg=99CCFF&amp;fg=444444&amp;anim=1" style="border: 0pt none ;" alt="" width="88" height="26" /></a></p>      </li>  </ul>  <!-- / .cont -->  </div>  <!-- / .box -->  </div>',04/22/08 04:27 PM,'NULL',0
11,'AboutSidebar','AboutSidebar','<div class="box about">  <h2>  About</h2>  <div class="cont">  <ul class="menu">      <li><a href="/donate.aspx">Donate Now!</a></li>      <li><a href="http://mises.org/faculty">Faculty/Staff</a></li>      <li><a href="http://mises.org/about/3467">FAQ</a></li>      <li><a href="http://mises.org/campus.asp">Campus Tour</a></li>      <a href="http://mises.org/virtualtour">      </a>      <li><a href="http://mises.org/virtualtour">Virtual Tour<br />      </a></li>      <a href="http://mises.org/virtualtour">    </a>      <li><a href="http://mises.org/content/elist.asp">Email Service</a></li>      <li><a href="http://mises.org/about/3251">Promotional Widgets</a></li>      <li><a href="http://mises.org/classroom/default.asp">Classroom</a></li>      <li><a href="http://mises.org/about#PUBLISHING">Submissions</a></li>      <li><a href="http://mises.org/contact.aspx">Contact</a></li>      <li><a href="http://mises.org/about/3323">Awards</a></li>      <li><a href="http://mises.org/pdf/specialreport.pdf">A Special Report on the Mises Institute (PDF)</a></li>  </ul>  <!-- / .cont -->  </div>  <!-- / .box -->  </div>  <div class="box whoisit">  <h2>  Who is it?</h2>  <div class="cont">  <ul class="menu">      <li><a href="http://mises.org/about/3248">Who is Ludwig von Mises?</a></li>      <li><a href="http://mises.org/about/3249">Who is Murray N. Rothbard?</a></li>  </ul>  <!-- / .cont -->  </div>  <!-- / .box -->  </div>  <div class="box whatisit">  <h2>  What is it?</h2>  <div class="cont">  <ul class="menu">      <li><a href="http://mises.org/quiz.aspx">Are You An Austrian? (Quiz)</a><br />      </li>      <li><a href="http://mises.org/about/3223">What is "Austrian Economics"?</a></li>      <li><a href="http://mises.org/about/3224">Why Austrian Economics Matters</a></li>      <li><a href="http://mises.org/about/3225">What is "Classical Liberalism"?</a></li>      <li><a href="/intellectuals.asp">Natural Elites, Intellectuals, and the State</a></li>  </ul>  <!-- / .cont -->  </div>  <!-- / .box -->  </div>',04/22/08 04:28 PM,'NULL',0
12,'BlogCommentRules','Blog Comment Rules','<h4>  Blog Comment Rules  </h4>  <ul>      <li>In submitting a comment, use a working email address that belongs to you so that      we may contact you with a question or clarification. The Mises Institute does not      collect email addresses or use them for any other purpose. If you use a false email,      and your content is otherwise questionable, your comment may be deleted. If you      do not want your email address to show publicly, you can enter an URL for a website      in the space provided; the software will then link to that address, not your email.      <p>      </p>      </li>      <li>Through your use of this blog, you agree that you will not use this bulletin board      to post any material which is knowingly false and/or defamatory, abusive, malign,      vulgar, hateful, harassing, obscene, profane, sexually oriented, threatening, invasive      of a person&#8217;s privacy, or otherwise in violation of any law.      <p>      </p>      </li>      <li>If your argument with another poster becomes heated, remember: agree to disagree.      Do not resort to personal attacks, and do not belittle someone else&#8217;s argument.      Instead of making it personal, use reason and persuasive skills to make your point      or criticize theirs.      <p>      </p>      </li>      <li>All comments must be intelligent and civil. Mises.org, which is private property,      welcomes spirited debate and does not "censor" disagreement. It does, however, remove      comments that are ill-tempered or do not contribute to civil discourse. If your      comment is removed, and you attempt to post it or something similar again, your      IP will be blacklisted.      <p>      </p>      </li>      <li>It is impolite to use a blog comment section to promote your own website or other      personal project. If you do this, you risk being black listed, not only by Mises.org      but by the general blog blacklist used by many other blogs.      <p>      </p>      </li>      <li>The messages express the views of the author of the post or comment, not necessarily      those of the Mises Institute. Any user who feels that a posted message is objectionable      is encouraged to contact us immediately by <a href="&#109;&#97;&#105;&#108;&#116;&#111;&#58;&#98;&#108;&#111;&#103;&#64;&#109;&#105;&#115;&#101;&#115;&#46;&#111;&#114;&#103;">email</a>.      We have the ability to remove objectionable comments and we will make every effort      to do so, within a reasonable time frame, if we determine that removal is necessary.      <p>      </p>      </li>      <li>You are welcome to submit a blog. If your blog is used, it will be posted under      your name as a guest blogger. If your blog is not used, we cannot contact you and      tell you why. We receive far too many submissions to make that possible. Nonetheless,      we are grateful for your participation.</li>  </ul>  ',04/22/08 04:34 PM,'NULL',0
13,'FreeNewsletter','FreeNewsletter.aspx','<h2>  Free Newsletter Signup: The Free Market</h2>  <br />  <br />  <br />  <p>  Fill out this form and receive our acclaimed monthly publication <em>The Free Market</em>  at no charge. This flagship publication of the Mises Institute features commentary  and analysis of current affairs, along with Mises Institute news. We also <a href="/donate.aspx" title="/donate.aspx"><span style="color: #0000ff; text-decoration: underline;">appreciate  your financial support</span></a> through full membership. The information  you provide below is used by the Mises Institute only (see our<a href="http://mises.org/content/privacy.asp" title="http://mises.org/content/privacy.asp"><span style="color: #0000ff; text-decoration: underline;">  privacy policy</span></a>).  Free newsletter by mail to US; all others via  email. Please allow 4-6 weeks for your first issue to arrive.<br />  </p>  <img src="http://mises.org/images/FreeMarket.gif" alt="The Free Market" align="left" />  ',04/22/08 04:37 PM,'NULL',0
14,'BookPageFooter','Bottom of book.aspx','<p>  <br />  <br />  <img src="http://mises.org/images/books.jpg" alt="" align="left" />  The Ward and Massey Libraries have been the grateful recipients of a number of valuable  collections, including the books of Murray N. Rothbard, Zygmund Dobbs, Robert Lefevre,  and Evlyn and William Samford.  <br />  This is not a catalog but a private collection. Donations of new and old books on  economics, philosophy, law, and history, in all languages, are gladly accepted.  Books for purchase are at the <a href="/store">book catalog of the Mises Institute</a>.  </p>',05/31/08 03:27 AM,'NULL',0
15,'BookPageHeader','Top of book.aspx','<br />  <h3 style="color: #990000; text-align: center;">  The Ward and Massey Libraries</h3>  <div style="color: #990000; text-align: center;">  518 West Magnolia Ave.; Auburn, Alabama 36832</div>  <br />  <p>  <a href="library.aspx">Return to Index</a></p>  <p>  Specializing in the Austrian School of economics and classical liberalism.<br />  Books may be removed from stacks only while in use, and then returned immediately.<br />  Contact with questions: <a href="&#109;&#97;&#105;&#108;&#116;&#111;&#58;&#108;&#105;&#98;&#114;&#97;&#114;&#121;&#64;&#109;&#105;&#115;&#101;&#115;&#46;&#111;&#114;&#103;">library@mises.org</a><br />  </p>  ',05/31/08 03:28 AM,'NULL',0
16,'GlobalSidebar','Included above search box','	<div class="box join-member">	  <h2 class="widget-header"><a href="https://mises.org/donate.aspx">Join as a Member</a></h2>	</div></div><div class="outerbox">	<div class="box bailoutreader">	  <h2 class="widget-header"><a href="http://mises.org/content/elist.asp">Subscribe to Mises Daily</a></h2>	</div>',11/12/09 03:28 AM,'NULL',0